Force [kN];Deflection [cm];Force [kN];Time [ms];Force [kN];Deflection [ms];Force [kN];Time [ms]
0;0;0;0;0;0;0;0
2;2;8;9;15;4;15;4
8;4;8;11;15;8;15;8
8;6;3;20;;;6;15
;;1.5;30;0;0.6;3;30
0;0;;;10;5;;
1;2;0;2.5;10;5.5;0;1
5;5;5;9;;;10;6
;;5;11;;;10;8
;;2;16;;;0;18
;;0;25;;;;
